Exploring the BRFSS data
…
We can learn that sleptim1 is numerical data and others are categorical data recorded as factors. In addition, NA occurs so we need to handle it by filtering them out.

Then we need to calculate the average sleep time for each month and sex.

rq2 <- brfss2013 %>% 
  filter(!is.na(sleptim1), !is.na(sex), iyear == 2013) %>%
  group_by(imonth, sex) %>%
  summarise(avgslep = sum(sleptim1)/n())
rq2

## # A tibble: 24 x 3
## # Groups:   imonth [12]
##    imonth   sex    avgslep
##    <fct>    <fct>    <dbl>
##  1 January  Male      7.06
##  2 January  Female    7.10
##  3 February Male      7.04
##  4 February Female    7.05
##  5 March    Male      7.02
##  6 March    Female    7.04
##  7 April    Male      7.04
##  8 April    Female    7.06
##  9 May      Male      7.02
## 10 May      Female    7.05
## #  with 14 more rows
…
We can learn that menthlth and physhlthare numerical data and others are categorical data recorded as factors. In addition, NA occurs so we need to handle it by filtering them out.

rq3 <- brfss2013 %>% 
  filter(!is.na(menthlth), !is.na(physhlth), !is.na(sex), iyear == 2013) %>%
  group_by(imonth, sex) %>%
  summarise(avgmenth = sum(menthlth)/n(), avgphysh = sum(physhlth)/n())
rq3

## # A tibble: 24 x 4
## # Groups:   imonth [12]
##    imonth   sex    avgmenth avgphysh
##    <fct>    <fct>     <dbl>    <dbl>
##  1 January  Male       2.67     4.15
##  2 January  Female     3.61     4.96
##  3 February Male       2.63     3.97
##  4 February Female     3.71     4.77
##  5 March    Male       2.84     3.99
##  6 March    Female     3.84     4.67
##  7 April    Male       2.85     3.96
##  8 April    Female     3.80     4.71
##  9 May      Male       2.78     3.85
## 10 May      Female     3.78     4.56
## #  with 14 more rows
…
